<?xml version="1.0" encoding="utf-8"?><svg version="1.1" id="Layer_1" xmlns="http://www.w3.org/2000/svg" xmlns:xlink="http://www.w3.org/1999/xlink" x="0px" y="0px"
     viewBox="0 0 110 110" style="enable-background:new 0 0 110 110;" xml:space="preserve"><style type="text/css">
    .st0{fill:#D83C35;}
    .st1{fill:#919090;}
</style><path class="st0" d="M67.3,55.3c0,0.7-0.5,1.2-1.2,1.2H56c-2,0-3-0.7-3.9-1.9l-4.6-6.1l-7.4,8l3.7,5.7c1.3,2,1.4,3.4,1.4,5.2v14.2
    c0,0.7-0.6,1.3-1.3,1.3h-4.8c-0.6,0-1.1-0.5-1.1-1.1V68.3c-0.1-4-6.2-7.8-8.5-4.6l-4.3,6.1c-1,1.4-2.6,1.8-4.2,1.8H9.9
    c-0.6,0-1.2-0.5-1.2-1.2v-4.8c0-0.5,0.4-1,1-1l8.3,0c1.5,0,2.7-0.5,3.4-2.1l4.1-10.1c0.7-1.5,1.7-2.9,2.9-4l9.6-9.5l-2.7-2.4
    c-0.8-0.7-1.9-1-3-0.8L25.1,37c-0.4,0.1-0.8-0.2-0.9-0.6l-0.9-4c-0.1-0.6,0.3-1.1,0.8-1.3l9.5-1.8c2-0.4,4.2,0.2,5.7,1.6l10.5,9.7
    c1.7,1.5,3.4,4.2,6.1,8.1c0.5,0.7,1.2,1.7,2.8,1.7H66c0.7,0,1.2,0.6,1.2,1.2L67.3,55.3z M56.4,38c3.7-0.7,6.2-4.3,5.5-8.1
    c-0.6-3.3-3.5-5.6-6.8-5.6c-4.3,0-7.6,3.9-6.8,8.2C49,36.3,52.6,38.7,56.4,38z"/><g><path class="st1" d="M45.9,88.2h2l0.9,5.4l0.9-5.4h2.1l-2.1,8.2h-1.9L45.9,88.2z"/><path class="st1" d="M53.6,88.2h1.9l2.2,8.2h-2.1l-0.3-1.6h-1.6l-0.3,1.6h-2L53.6,88.2z M54.5,90.4L54,93.3h1L54.5,90.4z"/><path class="st1" d="M62.3,96.2c-0.5,0.2-0.9,0.3-1.3,0.3c-0.9,0-1.6-0.4-2.2-1.2s-0.8-1.8-0.8-3c0-0.7,0.1-1.4,0.3-2.1
        s0.6-1.2,1.1-1.6s1-0.6,1.7-0.6c0.4,0,0.8,0.1,1.2,0.3v1.9c-0.3-0.3-0.6-0.5-1-0.5c-0.4,0-0.8,0.2-1,0.7s-0.4,1.1-0.4,1.9
        c0,0.7,0.1,1.3,0.4,1.7s0.6,0.7,1,0.7c0.3,0,0.7-0.1,1-0.4V96.2z"/><path class="st1" d="M64.9,88.2h1.9l2.2,8.2h-2.1l-0.3-1.6H65l-0.3,1.6h-2L64.9,88.2z M65.8,90.4l-0.5,2.9h1L65.8,90.4z"/><path class="st1" d="M68.4,88.2h5.2v1.7h-1.7v6.5H70v-6.5h-1.6V88.2z"/><path class="st1" d="M74.5,88.2h4.7v1.6h-2.8v1.5H79V93h-2.6v1.8h2.8v1.7h-4.7V88.2z"/></g><g><path class="st0" d="M95.7,91.6c-0.7,0-1.4-0.2-2-0.7l-20-16.7c-0.9-0.8-1.4-1.9-1.4-3.1V18.4c-0.1-0.7,0.1-1.7,0.8-2.5
        c0.5-0.6,1.4-1.2,3-1.2h19.4c1.9,0,3.4,1.5,3.4,3.4v70.4c0,1.2-0.7,2.3-1.8,2.8C96.6,91.5,96.2,91.6,95.7,91.6z M76.9,70.8
        l17.3,14.4V19.4H76.9V70.8z"/></g></svg>
